ano_movimentacao;ADMINISTRAÇÃO;ASSISTÊNCIA SOCIAL;CIÊNCIA E TECNOLOGIA;COMÉRCIO E SERVIÇOS;CULTURA;DESPORTO E LAZER;DIREITOS DA CIDADANIA;EDUCAÇÃO;ENCARGOS ESPECIAIS;ESSENCIAL À JUSTIÇA;GESTÃO AMBIENTAL;HABITAÇÃO;PREVIDÊNCIA SOCIAL;SANEAMENTO;SAÚDE;SEGURANÇA PÚBLICA;TRABALHO;URBANISMO
2013;16,21;0,10;0,58;0,58;0,01;2,30;8,21;95,87;0,61;0,00;0,37;14,65;0,02;9,99;41,61;0,00;0,00;341,40
2014;8,18;1,72;0,25;1,54;0,16;2,59;6,86;42,30;0,00;0,00;0,16;7,30;0,05;90,27;39,32;0,00;0,00;210,33
2015;7,17;0,15;0,16;3,49;1,24;14,94;5,19;16,62;0,00;0,00;1,58;1,17;0,00;44,16;68,89;0,00;0,00;167,42
2016;0,18;0,24;0,01;0,70;0,45;4,32;6,84;22,63;0,19;0,11;1,26;1,12;0,01;59,86;36,22;0,00;0,13;106,94
2017;2,11;0,50;0,09;0,50;0,32;4,16;2,50;19,60;34,84;0,18;2,06;0,85;0,02;35,49;12,49;0,00;0,02;68,29
2018;5,18;0,33;0,30;2,98;2,62;14,56;0,07;35,27;15,41;0,21;1,95;0,46;0,05;98,92;9,86;0,05;0,11;93,65
2019;12,90;2,75;3,23;3,90;1,25;4,94;0,26;91,68;0,00;0,03;1,51;1,08;0,07;43,04;16,25;0,09;0,10;242,86
