ano_movimentacao;EDUCAÇÃO ESPECIAL;EDUCAÇÃO INFANTIL;ENSINO FUNDAMENTAL;ENSINO PROFISSIONAL
2013;0,00;0,00;58,40;0,00
2014;0,00;0,00;59,02;0,00
2015;0,00;1,99;9,00;0,00
2016;0,00;6,58;13,66;0,00
2017;0,00;4,34;7,61;0,00
2018;0,00;4,84;25,45;0,00
2019;1,64;5,20;21,93;0,00
