ano_movimentacao;ADMINISTRAÇÃO FINANCEIRA;ADMINISTRAÇÃO GERAL;DIFUSÃO DO CONHECIMENTO CIENTÍFICO E TECNOLÓGICO
2013;0,00;0,00;0,58
2014;0,00;0,25;0,00
2015;0,00;0,16;0,00
2016;0,00;0,01;0,00
2017;0,00;0,00;0,09
2018;0,00;0,00;0,30
2019;1,00;0,07;2,16
