ano_movimentacao;ADMINISTRAÇÃO GERAL;DEFESA CIVIL;INFRA-ESTRUTURA URBANA;OUTROS ENCARGOS ESPECIAIS;PATRIMÔNIO HISTÓRICO, ARTÍSTICO E ARQUEOLÓGICO;PREVIDÊNCIA COMPLEMENTAR;PROTEÇÃO E BENEFÍCIOS AO TRABALHADOR;SERVIÇOS URBANOS;TRANSPORTES COLETIVOS URBANOS;TURISMO
2013;34,29;0,00;370,98;0,00;0,00;0,00;0,00;295,12;27,20;0,64
2014;197,22;0,00;273,63;0,00;0,00;0,00;0,00;367,19;39,91;1,97
2015;211,74;0,00;224,07;0,00;0,00;0,00;0,00;377,14;36,99;3,58
2016;264,75;28,62;142,49;0,00;0,00;0,00;5,43;349,68;34,89;1,49
2017;247,58;29,67;132,41;0,00;0,00;0,00;11,68;333,76;28,00;1,55
2018;201,01;29,99;155,34;22,69;0,00;36,32;0,00;366,16;49,29;0,00
2019;209,66;33,25;247,73;22,59;1,06;36,54;0,00;446,96;58,30;0,00
