ano_movimentacao;AMORTIZAÇÃO DA DÍVIDA;INVERSÕES FINANCEIRAS;INVESTIMENTOS;JUROS E ENCARGOS DA DÍVIDA;OUTRAS DESPESAS CORRENTES;PESSOAL E ENCARGOS SOCIAIS
2013;58,35;0,00;532,50;32,57;1247,12;1566,05
2014;57,29;0,15;411,05;36,67;1601,07;1782,07
2015;74,52;0,10;332,17;48,22;1589,93;2040,18
2016;63,58;0,00;241,21;55,29;1512,95;2116,01
2017;78,95;0,00;184,01;57,64;1614,60;2280,62
2018;71,41;0,04;281,97;61,05;1848,93;2449,37
2019;91,19;5,30;425,94;76,88;2017,33;2566,03
