ano_movimentacao;ADMINISTRAÇÃO GERAL;PATRIMÔNIO HISTÓRICO, ARTÍSTICO E ARQUEOLÓGICO;PRESERVAÇÃO E CONSERVAÇÃO AMBIENTAL
2013;6,23;0,00;17,51
2014;3,30;0,00;19,26
2015;4,71;0,00;20,79
2016;3,52;0,00;8,13
2017;4,30;0,00;15,97
2018;4,32;0,00;17,47
2019;3,92;1,50;13,92
