ano_movimentacao;ADMINISTRAÇÃO GERAL;PATRIMÔNIO HISTÓRICO, ARTÍSTICO E ARQUEOLÓGICO;PRESERVAÇÃO E CONSERVAÇÃO AMBIENTAL
2013;164,17;0,00;181,53
2014;72,93;0,00;114,31
2015;81,95;0,00;1500,00
2016;47,78;0,00;1209,02
2017;40,88;0,00;2015,56
2018;135,27;0,00;1786,36
2019;5,51;1500,00;0,00
