ano_movimentacao;ADMINISTRAÇÃO;ASSISTÊNCIA SOCIAL;CIÊNCIA E TECNOLOGIA;COMÉRCIO E SERVIÇOS;CULTURA;DESPORTO E LAZER;DIREITOS DA CIDADANIA;EDUCAÇÃO;ENCARGOS ESPECIAIS;ESSENCIAL À JUSTIÇA;GESTÃO AMBIENTAL;HABITAÇÃO;PREVIDÊNCIA SOCIAL;SANEAMENTO;SAÚDE;SEGURANÇA PÚBLICA;TRABALHO;URBANISMO
2013;15,19;0,10;0,58;0,59;0,01;0,06;7,62;58,40;0,61;0,00;0,35;14,66;0,01;9,22;36,96;0,00;0,00;316,28
2014;7,29;1,72;0,25;1,59;0,13;3,58;7,40;59,02;0,00;0,00;0,19;8,52;0,05;90,17;38,00;0,00;0,00;204,04
2015;7,31;0,17;0,10;2,63;1,23;14,59;4,99;10,99;0,00;0,00;1,58;1,17;0,00;42,66;67,54;0,00;0,00;145,69
2016;0,17;0,24;0,01;0,81;0,18;4,75;6,98;20,24;0,19;0,11;1,26;1,21;0,01;56,03;36,15;0,00;0,13;120,91
2017;2,31;0,24;0,09;0,50;0,32;4,16;2,50;11,96;34,84;0,18;2,06;0,85;0,02;39,16;13,04;0,00;0,02;69,82
2018;4,75;0,32;0,30;2,86;2,37;13,28;0,07;30,29;15,41;0,21;1,92;0,46;0,05;96,51;9,28;0,05;0,10;90,99
2019;11,78;2,65;2,29;3,81;1,25;4,90;0,20;28,78;0,00;0,03;1,51;1,08;0,06;41,64;14,89;0,09;0,05;222,22
