ano_movimentacao;AMORTIZAÇÃO DA DÍVIDA;INVERSÕES FINANCEIRAS;INVESTIMENTOS;JUROS E ENCARGOS DA DÍVIDA;OUTRAS DESPESAS CORRENTES;PESSOAL E ENCARGOS SOCIAIS
2013;58,35;0,00;460,62;32,57;1202,37;1560,21
2014;57,29;0,15;421,94;36,67;1504,91;1776,37
2015;74,49;0,10;300,67;48,22;1572,50;2013,88
2016;63,60;0,00;249,39;55,29;1502,58;2099,33
2017;78,95;0,00;182,06;57,64;1602,26;2268,54
2018;71,41;0,04;269,22;61,05;1812,24;2428,67
2019;88,69;1,20;337,23;72,24;1914,71;2536,15
