ano_movimentacao;ADMINISTRAÇÃO GERAL;COMERCIALIZAÇÃO;PROMOÇÃO COMERCIAL;TURISMO
2013;0,00;0,00;0,52;0,07
2014;0,05;0,00;1,50;0,03
2015;0,05;0,00;2,38;0,21
2016;0,02;0,00;0,37;0,42
2017;0,04;0,00;0,45;0,01
2018;0,11;0,00;2,63;0,12
2019;0,01;0,00;3,42;0,38
