ano_movimentacao;ADMINISTRAÇÃO GERAL;FORMAÇÃO DE RECURSOS HUMANOS;HABITAÇÃO URBANA
2013;0,00;0,00;16,50
2014;0,64;0,00;10,27
2015;0,62;0,00;4,78
2016;0,57;0,00;3,49
2017;0,00;0,00;0,85
2018;0,00;0,00;0,46
2019;2,58;0,00;0,95
