ano_movimentacao;ADMINISTRAÇÃO GERAL;COMERCIALIZAÇÃO;PROMOÇÃO COMERCIAL;TURISMO
2013;0,00;4,95;508,46;67,18
2014;49,29;0,00;1463,31;32,14
2015;46,56;0,00;3145,71;295,40
2016;17,88;0,00;260,71;419,87
2017;39,32;0,00;454,52;6,20
2018;109,89;0,00;2630,62;240,28
2019;216,06;0,00;3423,25;259,95
