ano_movimentacao;OUTROS ENCARGOS ESPECIAIS;PROTEÇÃO E BENEFÍCIOS AO TRABALHADOR;SERVIÇO DA DÍVIDA EXTERNA;SERVIÇO DA DÍVIDA INTERNA
2013;0,00;0,00;4,83;61,54
2014;0,00;0,00;5,10;68,16
2015;0,00;0,00;14,88;87,46
2016;74,20;0,00;0,00;97,52
2017;108,70;0,07;0,00;119,34
2018;96,75;0,00;16,01;107,80
2019;87,80;0,00;6,95;150,89
