ano_movimentacao;ADMINISTRAÇÃO GERAL;ASSISTÊNCIA AO IDOSO;ASSISTÊNCIA COMUNITÁRIA;ASSISTÊNCIA À CRIANÇA E AO ADOLESCENTE
2013;0,00;0,00;0,08;0,01
2014;0,11;0,00;1,61;0,00
2015;0,01;0,00;0,14;0,01
2016;0,13;0,00;0,11;0,00
2017;0,11;0,00;0,12;0,02
2018;0,19;0,01;0,09;0,03
2019;0,03;0,18;2,41;0,03
