ano_movimentacao;ADMINISTRAÇÃO;ASSISTÊNCIA SOCIAL;CIÊNCIA E TECNOLOGIA;COMUNICAÇÕES;COMÉRCIO E SERVIÇOS;CULTURA;DESPORTO E LAZER;DIREITOS DA CIDADANIA;EDUCAÇÃO;ENCARGOS ESPECIAIS;ESSENCIAL À JUSTIÇA;GESTÃO AMBIENTAL;HABITAÇÃO;JUDICIÁRIA;PREVIDÊNCIA SOCIAL;SANEAMENTO;SAÚDE;SEGURANÇA PÚBLICA;TRABALHO;URBANISMO
2013;614,40;30,36;4,61;18,55;17,96;83,67;6,40;10,06;608,43;66,37;0,00;23,58;16,51;0,00;290,81;33,27;789,47;0,00;0,06;699,61
2014;480,30;45,67;4,71;0,00;56,05;103,61;13,56;15,28;775,93;73,26;0,00;19,55;12,12;0,17;329,00;122,57;900,60;0,00;0,00;844,94
2015;518,27;62,44;8,65;0,00;42,99;120,76;22,51;29,24;818,67;102,31;0,00;26,71;5,38;0,02;397,66;71,03;939,70;0,00;0,00;843,54
2016;315,13;60,68;1,52;0,00;38,59;94,65;23,00;60,22;809,99;169,00;38,37;11,43;4,17;0,00;414,76;86,01;992,23;0,00;7,28;843,17
2017;397,15;60,64;0,71;0,00;42,01;93,31;19,88;72,43;817,99;229,05;41,95;20,45;0,87;0,00;458,01;68,86;1063,71;0,00;2,39;800,03
2018;457,43;66,31;1,00;0,00;56,69;108,50;28,73;66,46;904,07;219,44;43,85;21,73;0,46;0,00;536,79;128,65;1144,64;4,21;2,93;850,75
2019;486,58;82,03;4,79;0,00;62,36;118,72;21,48;77,14;936,63;238,97;46,35;17,89;3,52;0,00;571,57;76,57;1165,19;4,06;6,00;1030,34
