ano_movimentacao;ADMINISTRAÇÃO GERAL;COMERCIALIZAÇÃO;PROMOÇÃO COMERCIAL;TURISMO
2013;0,00;0,00;518,63;67,18
2014;49,29;0,00;1504,17;32,14
2015;46,56;0,00;2381,19;206,62
2016;17,88;0,00;374,24;419,87
2017;39,32;0,00;454,52;6,20
2018;109,89;0,00;2630,62;122,37
2019;12,85;0,00;3423,25;375,56
