ano_movimentacao;ADMINISTRAÇÃO GERAL;COMERCIALIZAÇÃO;OUTROS ENCARGOS ESPECIAIS;PREVIDÊNCIA COMPLEMENTAR;PROMOÇÃO COMERCIAL;PROTEÇÃO E BENEFÍCIOS AO TRABALHADOR;TURISMO
2013;0,00;0,64;0,00;0,00;8,09;0,00;9,23
2014;7,95;0,32;0,00;0,00;11,68;0,00;36,10
2015;8,31;0,23;0,00;0,00;13,22;0,00;21,22
2016;10,68;0,00;0,00;0,00;14,16;0,75;13,00
2017;12,01;0,00;0,00;0,00;15,00;0,88;14,12
2018;10,92;0,04;1,08;1,65;19,05;0,00;23,95
2019;11,49;0,00;0,98;1,79;24,42;0,00;23,68
