ano_movimentacao;EDUCAÇÃO ESPECIAL;EDUCAÇÃO INFANTIL;ENSINO FUNDAMENTAL;ENSINO PROFISSIONAL
2013;0,00;0,00;95,87;0,00
2014;0,00;0,00;42,30;0,00
2015;0,00;2,34;14,28;0,00
2016;0,00;8,55;14,09;0,00
2017;0,00;5,19;14,41;0,00
2018;0,00;3,65;31,62;0,00
2019;1,64;5,20;84,84;0,00
