ano_movimentacao;ADMINISTRAÇÃO DE RECEITAS;ADMINISTRAÇÃO FINANCEIRA;ADMINISTRAÇÃO GERAL;AÇÃO JUDICIÁRIA;COMUNICAÇÃO SOCIAL;CONTROLE INTERNO;DIREITOS INDIVIDUAIS, COLETIVOS E DIFUSOS;FOMENTO AO TRABALHO;FORMAÇÃO DE RECURSOS HUMANOS;PLANEJAMENTO E ORÇAMENTO;TECNOLOGIA DA INFORMAÇÃO;TURISMO
2013;0,05;0,00;13,74;0,21;0,00;0,08;0,00;0,01;0,00;0,00;2,11;0,00
2014;0,02;0,04;2,90;0,73;0,00;0,00;0,00;0,05;0,00;0,02;4,41;0,01
2015;0,06;0,00;4,97;0,94;0,00;0,00;0,03;0,22;0,00;0,01;0,93;0,00
2016;0,01;0,00;0,18;0,00;0,00;0,00;0,00;0,00;0,00;0,00;0,00;0,00
2017;0,32;0,09;1,66;0,00;0,00;0,00;0,00;0,00;0,00;0,00;0,03;0,00
2018;0,02;0,02;3,98;0,00;0,01;0,00;0,00;0,00;0,00;0,00;1,14;0,00
2019;0,00;0,02;12,64;0,00;0,00;0,00;0,00;0,00;0,00;0,00;0,24;0,00
