ano_movimentacao;ADMINISTRAÇÃO GERAL;ASSISTÊNCIA AO IDOSO;ASSISTÊNCIA COMUNITÁRIA;ASSISTÊNCIA À CRIANÇA E AO ADOLESCENTE;DIREITOS INDIVIDUAIS, COLETIVOS E DIFUSOS;FOMENTO AO TRABALHO;FORMAÇÃO DE RECURSOS HUMANOS;PROTEÇÃO E BENEFÍCIOS AO TRABALHADOR
2013;0,07;0,00;25,27;5,02;0,00;0,00;0,00;0,00
2014;9,56;0,00;33,15;2,94;0,00;0,01;0,00;0,00
2015;16,37;0,00;41,81;4,26;0,00;0,00;0,00;0,00
2016;11,17;0,00;40,23;3,95;4,93;0,00;0,00;0,40
2017;5,81;0,15;34,32;2,97;17,39;0,00;0,00;0,00
2018;1,59;0,17;41,72;2,73;20,10;0,00;0,00;0,00
2019;2,87;1,66;53,05;2,94;21,52;0,00;0,00;0,00
