credor_nome;2019
AUTARQUIA DE MANUTENCAO E LIMPEZA URBANA - EMLURB;13625000,00
AUTARQUIA DE URBANIZACAO DO RECIFE URB FUNCIONARIOS RELACIONADOS EM FOLHA DE PAGAMENTO;31137863,39
BANCO DO BRASIL S/A;31376754,21
CAIXA ECONOMICA FEDERAL;5880253,00
CEASA-PE/OS - CENTRO DE ABASTECIMENTO E LOGISTICA DE PERNAMBUCO;2118126,37
CIA HIDRO ELETRICA DO SAO FRANCISCO CHESF;1740536,37
CINZEL ENGENHARIA LTDA;1872261,83
COELHO DE ANDRADE ENGENHARIA LTDA CAEL ENGENHARIA;41308754,53
COMPANHIA ENERGETICA DE PERNAMBUCO;25664876,03
CONSTRUTORA CELI LTDA;8822696,33
ECOPESA AMBIENTAL SA CTR CANDEIAS;15856399,53
EMLURB FUNCIONARIOS RELACIONADOS EM FOLHA DE PAGAMENTO;32122677,91
FUNDACAO MANOEL DA SILVA ALMEIDA;6543466,77
FUNDACAO PROFESSOR MARTINIANO FERNANDES IMIP HOSPITALAR;22143962,08
FUNDO NACIONAL DE DESENVOLVIMENTO DA EDUCACAO - FNDE;2007789,92
FUNDO NACIONAL DE SAUDE;1504609,74
GM QUALITY COMERCIO LTDA;22798079,88
GUERRA CONSTRUCOES LTDA;1699453,36
INSTITUTO DE APOIO A FUNDACAO UNIVERSIDADE DE PE - IAUPE;3206218,66
INSTITUTO DE DESENVOLVIMENTO E GESTAO - IDG;1563500,00
INSTITUTO DE GESTAO DO ESPORTE E DA CULTURA IGEC;3600000,00
INSTITUTO NACIONAL DE SEGURIDADE SOCIAL - INSS;20866442,84
IRMANDADE DA SANTA CASA DE MISERICORDIA DO RECIFE - HOSPITAL DE SANTO AMARO;30688030,37
LIDERMAC CONSTRUCOES E EQUIPAMENTOS LTDA;5419894,16
MINISTERIO DA FAZENDA - PROCURADORIA DA FAZENDA NACIONAL ESTADO DE PERNAMBUCO;40019411,90
MINISTERIO DAS CIDADES;3039336,86
PERNAMBUCO CONSERVADORA EIRELI;5252183,20
PREFEITURA DA CIDADE DO RECIFE;40253008,10
PRM SERVICOS E MAO DE OBRA ESPECIALIZADA EIRELI;12084480,23
R P L ENGENHARIA E SERVICOS LTDA;14502937,52
RC NUTRY ALIMENTACAO LTDA;24898822,93
SOCIEDADE PERNAMBUCANA DE COMBATE AO CANCER - HOSPITAL DA MULHER DO RECIFE;26816360,38
SOLL SERVICOS OBRAS E LOCACOES LTDA;9347687,52
SUPRISERVI COMERCIO REPRESENTACOES E SERVICOS LTDA - NEWSUPRI;1919985,84
TRIBUNAL DE JUSTICA DO ESTADO DE PERNAMBUCO;1800000,00
TRIBUNAL REGIONAL DO TRABALHO DA SEXTA REGIAO - T R T;13159939,69
VASCONCELOS COSTA EMPREENDIMENTOS E PARTICIPACOES LTDA;9500000,00
VITAL ENGENHARIA AMBIENTAL S/A;134911404,92
