credor_nome;2016
AGUIA SERVICOS DE VIGILANCIA LTDA;2520927,16
ARCLIMA ENGENHARIA LTDA ARCLIMA;2492379,27
BANCO DO BRASIL S/A;10761287,03
BECTON DICKINSON INDUSTRIAS CIRURGICAS LTDA;1620000,00
CAIXA ECONOMICA FEDERAL;20608204,16
CASA DE FARINHA LTDA;8395927,94
CEASA-PE/OS - CENTRO DE ABASTECIMENTO E LOGISTICA DE PERNAMBUCO;4679811,00
CINZEL ENGENHARIA LTDA;10543739,51
COELHO DE ANDRADE ENGENHARIA LTDA CAEL ENGENHARIA;25670778,56
COMPANHIA ENERGETICA DE PERNAMBUCO;16691083,25
CONSORCIO SANEAMENTO DO BEBERIBE LOTE 01;10974402,37
CONSTRUTORA ANDRADE GUEDES LTDA;2599981,54
ECOPESA AMBIENTAL SA CTR CANDEIAS;25172651,95
ESCOLA DE FORMACAO DE AERONAUTAS AEROCLUBE DE PERNAMBUCO;10500000,00
FUNCIONARIOS RELACIONADOS NA FOLHA DE PAGAMENTO DA AUTARQUI DE URBANIZACAO DO RECIFE URB;32624730,19
FUNCIONARIOS RELACIONADOS NA FOLHA DE PAGAMENTO DA EMPRESA DE MANUTENÇAO E LIMPEZA URBANA - EMLURB;43053471,29
FUNDACAO MANOEL DA SILVA ALMEIDA;19905098,87
FUNDACAO PROFESSOR MARTINIANO FERNANDES IMIP HOSPITALAR;31876496,33
FUNDO DE ARRENDAMENTO RESIDENCIAL FAR;2024439,12
INSTITUTO NACIONAL DE SEGURIDADE SOCIAL - INSS;29646312,64
LIDERMAC CONSTRUCOES E EQUIPAMENTOS LTDA;5512724,86
MINDLAB DO BRASIL COMERCIO DE LIVROS LTDA;7405463,00
MINISTERIO DA FAZENDA - PROCURADORIA DA FAZENDA NACIONAL ESTADO DE PERNAMBUCO;29376355,15
MULTICON ENGENHARIA LTDA;1997145,39
PORTFOLIO EDITORA, COMERCIO E SERVICO LTDA - ME;6149774,00
PREFEITURA DA CIDADE DO RECIFE;21678248,25
SANTA CASA DE MISERICORDIA DO RECIFE HOSPITAL DE SANTO AMARO;28454812,41
SECRETARIA DE DEFESA SOCIAL;1640660,53
SOCIEDADE PERNAMBUCANA DE COMBATE AO CANCER;5055589,56
SOCIEDADE PERNAMBUCANA DE COMBATE AO CANCER - HOSPITAL DA MULHER DO RECIFE;10000000,00
SP ALIMENTACAO E SERVICOS LTDA - HORTCLEAN;29331843,73
TRIBUNAL REGIONAL DO TRABALHO DA SEXTA REGIAO - T R T;3658860,65
VITAL ENGENHARIA AMBIENTAL S/A;120345725,77
