credor_nome;2013
AVANTIA TECNOLOGIA E ENGENHARIA S/A;1616157,54
BANCO DO BRASIL S/A;29751366,61
CAIXA ECONOMICA FEDERAL;5297769,55
CAIXA ECONOMICA FEDERAL A ORDEM DA JUSTICA ESTADUAL;5650000,00
CINZEL ENGENHARIA LTDA;23038027,58
CLEIDE IARA ANDRADE DA SILVA;1598439,89
COELHO DE ANDRADE ENGENHARIA LTDA CAEL ENGENHARIA;21283787,47
CONSTRUTORA ANDRADE GUEDES LTDA;1919682,14
CONSTRUTORA QUEIROZ GALVAO S/A;178254799,72
ECOPESA AMBIENTAL SA CTR CANDEIAS;22730077,15
EDACOM TECNOLOGIA EM SISTEMAS DE INFORMATICA LTDA;2614700,00
EMPRESA MUNICIPAL DE INFORMATICA - EMPREL;2000000,00
FUNCIONARIOS RELACIONADOS NA FOLHA DE PAGAMENTO DA EMPRESA DE MANUTENÇAO E LIMPEZA URBANA - EMLURB;12198892,30
FUNCIONARIOS RELACIONADOS NA FOLHA DE PAGAMENTO DA EMPRESA DE URBANIZAÇAO DO RECIFE URB;15926604,88
FUNDACAO DE APOIO AO DESENVOLVIMENTO DA UFPE - FADE;2060000,00
FUNDACAO PROFESSOR MARTINIANO FERNANDES IMIP HOSPITALAR;20301947,50
FUNDO ESTADUAL DE SAUDE DE PERNAMBUCO;1553627,10
HOSPITAL E MATERNIDADE SAO LUIZ S/A;2751941,25
IDG INSTITUTO DE DESENVOLVIMENTO E GESTAO;2278500,00
MINDLAB DO BRASIL COMERCIO DE LIVROS LTDA;3312538,00
MINISTERIO DAS CIDADES;11112605,04
OITAVA VARA DA FAZENDA PUBLICA DA CAPITAL;4749600,00
P C R BOLSA ESCOLA 104 00507 6566;7810293,00
PERNAMBUCO SECRETARIA DE SAUDE - PE SEC GABINETE DO SECRETARIO;2071502,80
PREFEITURA DA CIDADE DO RECIFE;19953493,20
QUARTA VARA DA FAZENDA PUBLICA DA CAPITAL;7755709,00
REVOREDO & CIA LTDA EPP;2054311,24
SANTA CASA DE MISERICORDIA DO RECIFE HOSPITAL DE SANTO AMARO;4726978,71
SECRETARIA DAS CIDADES;7000000,00
SEGUNDA VARA DA FAZENDA PUBLICA DA CAPITAL;13919412,00
SMARTWAVE NETWORKS DO BRASIL LTDA;2633800,00
SOLL SERVICOS OBRAS E LOCACOES LTDA;1575163,81
TERCEIRA VARA DA FAZENDA PUBLICA DA CAPITAL;1858656,00
TRIBUNAL DE JUSTICA DO ESTADO DE PERNAMBUCO;6055696,23
VITAL ENGENHARIA AMBIENTAL S/A;92382572,33
