credor_nome;2015
AGUIA SERVICOS DE VIGILANCIA LTDA;8737559,64
BANCO DO BRASIL S/A;34373330,99
BECTON DICKINSON INDUSTRIAS CIRURGICAS LTDA;2025000,00
CAIXA ECONOMICA FEDERAL;22281024,04
CASA DE FARINHA LTDA;4980721,40
CEASA-PE/OS - CENTRO DE ABASTECIMENTO E LOGISTICA DE PERNAMBUCO;4359622,00
CINZEL ENGENHARIA LTDA;49025874,13
COELHO DE ANDRADE ENGENHARIA LTDA CAEL ENGENHARIA;21403694,64
COMPANHIA ENERGETICA DE PERNAMBUCO;15519088,72
CONSORCIO SANEAMENTO DO BEBERIBE LOTE 01;15465654,36
CONSTRUTORA ANDRADE GUEDES LTDA;4662532,01
CONSTRUTORA QUEIROZ GALVAO SA;52497499,38
ECOPESA AMBIENTAL SA CTR CANDEIAS;24309896,89
EDITORA POSITIVO LTDA;1573995,30
ERJ ADMINISTRACAO E RESTAURANTES DE EMPRESAS LTDA;16304200,48
FUNCIONARIOS RELACIONADOS NA FOLHA DE PAGAMENTO DA EMPRESA DE MANUTENÇAO E LIMPEZA URBANA - EMLURB;46918176,78
FUNCIONARIOS RELACIONADOS NA FOLHA DE PAGAMENTO DA EMPRESA DE URBANIZAÇAO DO RECIFE URB;28749726,70
FUNDACAO DE APOIO AO DESENVOLVIMENTO DA UFPE - FADE;3469531,89
FUNDACAO MANOEL DA SILVA ALMEIDA;10812008,27
FUNDACAO PROFESSOR MARTINIANO FERNANDES IMIP HOSPITALAR;17583993,60
GM QUALITY COMERCIO LTDA;2805000,00
IDG INSTITUTO DE DESENVOLVIMENTO E GESTAO;1700000,00
IMEPH INST META DE EDUC PESQUISA E FORMACAO DE RECURSOS HUMANOS LTDA;15371503,00
INSTITUTO NACIONAL DE SEGURIDADE SOCIAL - INSS;19543391,77
LIDERMAC CONSTRUCOES E EQUIPAMENTOS LTDA;6127488,52
MINDLAB DO BRASIL COMERCIO DE LIVROS LTDA;2369548,00
MINISTERIO DA FAZENDA - PROCURADORIA DA FAZENDA NACIONAL ESTADO DE PERNAMBUCO;29124715,14
NUCLEO DE GESTAO DO PORTO DIGITAL;1702117,26
PHILIPS MEDICAL SYSTEMS LTDA;4412000,00
PREFEITURA DA CIDADE DO RECIFE;22799970,58
R P L ENGENHARIA E SERVICOS LTDA;3606794,83
SANTA CASA DE MISERICORDIA DO RECIFE HOSPITAL DE SANTO AMARO;18237622,36
SECRETARIA DE DEFESA SOCIAL;1722424,27
SP ALIMENTACAO E SERVICOS LTDA - HORTCLEAN;37290830,26
VITAL ENGENHARIA AMBIENTAL S/A;133290287,05
