credor_nome;2018
AGUIA SERVICOS DE VIGILANCIA LTDA;4000000,00
AUTARQUIA DE MANUTENCAO E LIMPEZA URBANA - EMLURB;2000000,00
BANCO DO BRASIL S/A;23640201,66
BANCO SANTANDER BRASIL SA;2230953,91
BRINK MOBIL EQUIPAMENTOS EDUCACIONAIS LTDA;1794633,60
CAIXA ECONOMICA FEDERAL;20064332,31
CASA DE FARINHA LTDA;4799850,26
CEASA-PE/OS - CENTRO DE ABASTECIMENTO E LOGISTICA DE PERNAMBUCO;4263960,92
CIA HIDRO ELETRICA DO SAO FRANCISCO CHESF;2457401,92
CINZEL ENGENHARIA LTDA;1681229,69
COELHO DE ANDRADE ENGENHARIA LTDA CAEL ENGENHARIA;47917855,21
COMPANHIA ENERGETICA DE PERNAMBUCO;21803886,18
CONSORCIO CORDEIRO;11787750,12
CONSTRUTORA CELI LTDA;9153063,91
CONSTRUTORA INGAZEIRA LTDA;9672977,47
ECOPESA AMBIENTAL SA CTR CANDEIAS;14513728,11
FUNCIONARIOS RELACIONADOS NA FOLHA DE PAGAMENTO DA AUTARQUI DE URBANIZACAO DO RECIFE URB;28970099,77
FUNCIONARIOS RELACIONADOS NA FOLHA DE PAGAMENTOS DA EMLURB;35467081,30
FUNDACAO MANOEL DA SILVA ALMEIDA;7534761,67
FUNDACAO PROFESSOR MARTINIANO FERNANDES IMIP HOSPITALAR;24282392,02
IDG INSTITUTO DE DESENVOLVIMENTO E GESTAO;1563500,00
INSTITUTO DE APOIO A FUNDACAO UNIVERSIDADE DE PE - IAUPE;3416205,86
INSTITUTO NACIONAL DE SEGURIDADE SOCIAL - INSS;17823379,15
IRMANDADE DA SANTA CASA DE MISERICORDIA DO RECIFE - HOSPITAL DE SANTO AMARO;29603504,37
MINISTERIO DA FAZENDA - PROCURADORIA DA FAZENDA NACIONAL ESTADO DE PERNAMBUCO;33199627,10
OTL OBRAS TECNICAS LTDA;1625610,51
PERNAMBUCO CONSERVADORA EIRELI;5058774,07
PORTFOLIO EDITORA, COMERCIO E SERVICO LTDA - ME;7299782,00
PREFEITURA DA CIDADE DO RECIFE;63703032,03
R P L ENGENHARIA E SERVICOS LTDA;5000000,00
SETIMA VARA FEDERAL DE PERNAMBUCO;1658955,00
SOCIEDADE PERNAMBUCANA DE COMBATE AO CANCER - HOSPITAL DA MULHER DO RECIFE;26373012,24
SOLL SERVICOS OBRAS E LOCACOES LTDA;7127102,45
SP ALIMENTACAO E SERVICOS LTDA - HORTCLEAN;4908678,65
TRIBUNAL DE JUSTICA DO ESTADO DE PERNAMBUCO;10193850,90
TRIBUNAL REGIONAL DO TRABALHO DA SEXTA REGIAO - T R T;5592649,99
TRIBUNAL REGIONAL FEDERAL DA 5ª REGIAO;2057593,60
VITAL ENGENHARIA AMBIENTAL S/A;132245365,94
